{#1207
    +"CUST_NO": "209087"
    +"NAM": "CHRISTOPHER HATCH"
    +"NAM_UPR": "CHRISTOPHER HATCH"
    +"FST_NAM": "CHRISTOPHER"
    +"FST_NAM_UPR": "CHRISTOPHER"
    +"LST_NAM": "HATCH"
    +"LST_NAM_UPR": "HATCH"
    +"CUST_TYP": "C"
    +"ADRS_1": "2643 LINCOLN ST NE"
    +"CITY": "MINNEAPOLIS"
    +"STATE": "MN"
    +"ZIP_COD": "55418-3043"
    +"PHONE_1": "612 532 2907"
    +"EMAIL_ADRS_1": "chrisdhatch@gmail.com"
    +"PROMPT_NAM_ADRS": "N"
    +"SLS_REP": "1"
    +"CATEG_COD": "TAX"
    +"STR_ID": "1"
    +"STMNT_COD": "1"
    +"TERMS_COD": "N"
    +"ALLOW_AR_CHRG": "Y"
    +"ALLOW_TKTS": "Y"
    +"NO_CR_LIM": "Y"
    +"NO_MAX_CHK_AMT": "Y"
    +"UNPSTD_BAL": 0.0
    +"BAL_METH": "O"
    +"AR_ACCT_NO": "1100000-0100"
    +"BAL": 0.0
    +"ORD_BAL": 0.0
    +"NO_OF_ORDS": 0
    +"USE_ORD_SHIP_TO": "S"
    +"ALLOW_ORDS": "Y"
    +"LST_AGE_BAL": 0.0
    +"LST_AGE_BAL_1": 0.0
    +"LST_AGE_BAL_2": 0.0
    +"LST_AGE_BAL_3": 0.0
    +"LST_AGE_BAL_4": 0.0
    +"LST_AGE_BAL_5": 0.0
    +"LST_AGE_BAL_2_5": 0.0
    +"LST_AGE_BAL_3_5": 0.0
    +"LST_AGE_BAL_4_5": 0.0
    +"LST_AGE_FUTR_DOCS": "N"
    +"LST_AGE_METH": "!"
    +"LST_AGE_NO_CUTOFF": "N"
    +"LST_AGE_NON_STD": "N"
    +"LST_STMNT_BAL": 0.0
    +"LST_STMNT_BAL_1": 0.0
    +"LST_STMNT_BAL_2": 0.0
    +"LST_STMNT_BAL_3": 0.0
    +"LST_STMNT_BAL_4": 0.0
    +"LST_STMNT_BAL_5": 0.0
    +"LST_STMNT_BAL_2_5": 0.0
    +"LST_STMNT_BAL_3_5": 0.0
    +"LST_STMNT_BAL_4_5": 0.0
    +"LST_STMNT_METH": "!"
    +"FST_SAL_DAT": "2005-07-09T00:00:00.0000000"
    +"LST_SAL_DAT": "2019-09-03T00:00:00.0000000"
    +"LST_SAL_AMT": 35.11
    +"LST_PMT_AMT": 0.0
    +"LST_MAINT_DT": "2019-08-01T08:45:50.0000000"
    +"LST_MAINT_USR_ID": "MJL"
    +"WRK_STMNT_ACTIV": "N"
    +"LWY_BAL": 0.0
    +"NO_OF_LWYS": 0
    +"USE_LWY_SHIP_TO": "S"
    +"ALLOW_LWYS": "Y"
    +"IS_ECOMM_CUST": "Y"
    +"DISC_PCT": 0.0
    +"ECOMM_INIT_PWD": "XBLPH40VIUHF"
    +"ECOMM_NXT_PUB_UPDT": "N"
    +"ECOMM_NXT_PUB_FULL": "N"
    +"ECOMM_LST_PUB_DT": "2015-07-22T17:26:36.0000000"
    +"ECOMM_LST_PUB_TYP": "F"
    +"ECOMM_CREATED_CUST": "N"
    +"ECOMM_LST_IMP_TYP": "!"
    +"PROMPT_FOR_CUSTOM_FLDS": "N"
    +"LOY_PGM_COD": "WINE"
    +"LOY_PTS_BAL": 42
    +"TOT_LOY_PTS_EARND": 7108
    +"TOT_LOY_PTS_RDM": 0
    +"TOT_LOY_PTS_ADJ": -66
    +"LST_LOY_EARN_TKT_DAT": "2019-09-03T00:00:00.0000000"
    +"LST_LOY_EARN_TKT_TIM": "1899-12-30T16:35:58.0000000"
    +"LST_LOY_PTS_EARN": 42
    +"LST_LOY_EARN_TKT_NO": "1-6093474"
    +"LST_LOY_ADJ_DAT": "2019-10-22T00:00:00.0000000"
    +"LST_LOY_PTS_ADJ": -165
    +"LST_LOY_ADJ_DOC_NO": ""
    +"LST_FCH_AMT": 0.0
    +"REQ_PO_NO": "N"
    +"RS_UTC_DT": "2019-10-22T20:00:25.6270000"
    +"CUST_NAM_TYP": "P"
    +"CUST_FST_LST_NAM": "HATCH, CHRISTOPHER"
    +"LST_LOY_EARN_TKT_DT": "2019-09-03T16:35:58.0000000"
    +"EMAIL_STATEMENT": "N"
    +"RS_STAT": 1
    +"INCLUDE_IN_MARKETING_MAILOUTS": "N"
    +"RPT_EMAIL": "1"
    +"AR_CUST_NOTE": []
    +"AR_SHIP_ADRS": []
    +"AR_CUST_CARDS": []
  }
